<?xml version="1.0" encoding="iso-8859-1"?>
<!-- Generator: Adobe Illustrator 16.0.0, SVG Export Plug-In . SVG Version: 6.00 Build 0)  -->
<!DOCTYPE svg PUBLIC "-//W3C//DTD SVG 1.1//EN" "http://www.w3.org/Graphics/SVG/1.1/DTD/svg11.dtd">
<svg version="1.1" id="Capa_1" xmlns="http://www.w3.org/2000/svg" xmlns:xlink="http://www.w3.org/1999/xlink" x="0px" y="0px"
	 width="893.605px" height="893.606px" fill="rgba(59, 93, 240, 0.9)" viewBox="0 0 893.605 893.606" style="enable-background:new 0 0 893.605 893.606;"
	 xml:space="preserve">
<g>
	<g>
		<path d="M0,123.256v647.093h893.605V123.256H0z M862.792,739.535H30.814V154.07h831.978V739.535z"/>
		<polygon points="227.615,303.024 138.663,261.919 138.663,280.215 209.801,310.969 209.801,311.39 138.663,342.144 138.663,360.5
			227.615,319.334 		"/>
	</g>
</g>
<g>
</g>
<g>
</g>
<g>
</g>
<g>
</g>
<g>
</g>
<g>
</g>
<g>
</g>
<g>
</g>
<g>
</g>
<g>
</g>
<g>
</g>
<g>
</g>
<g>
</g>
<g>
</g>
<g>
</g>
</svg>
