<?xml version="1.0" encoding="iso-8859-1"?>
<!-- Generator: Adobe Illustrator 21.0.2, SVG Export Plug-In . SVG Version: 6.00 Build 0)  -->
<svg version="1.1" id="&#x421;&#x43B;&#x43E;&#x439;_1"
	 xmlns="http://www.w3.org/2000/svg" xmlns:xlink="http://www.w3.org/1999/xlink" x="0px" y="0px" viewBox="0 0 402.52 566.93"
	 style="enable-background:new 0 0 402.52 566.93;" xml:space="preserve">
<g id="XMLID_1_">
	<g>
		<path style="fill:#FFFFFF;" d="M341.208,59.575c69.013,69.013,77.64,198.928,18.283,277.855L201.508,565.714L43.267,337.173
			c-59.099-78.67-50.472-208.584,18.541-277.597c37.339-37.339,86.91-57.94,139.7-57.94S303.869,22.236,341.208,59.575z
			 M275.414,197.344c0-39.657-32.318-71.974-72.103-71.974s-72.103,32.318-72.103,71.974c0,39.786,32.318,72.232,72.103,72.232
			S275.414,237.129,275.414,197.344z"/>
	</g>
</g>
</svg>
